Documents/FPGA_Programming/HDL/VHDL-W3/simulation/qsim/Four2OneMultiplexer.msim.vcd
$comment
	File created using the following command:
		vcd file Four2OneMultiplexer.msim.vcd -direction
$end
$date
	Sun Mar 24 03:36:28 2024
$end
$version
	ModelSim Version 2020.1
$end
$timescale
	1ps
$end

$scope module Four2OneMultiplexer_vlg_vec_tst $end
$var reg 1 ! A $end
$var reg 1 " B $end
$var reg 1 # C $end
$var reg 1 $ D $end
$var reg 1 % S0 $end
$var reg 1 & S1 $end
$var wire 1 ' Y $end

$scope module i1 $end
$var wire 1 ( gnd $end
$var wire 1 ) vcc $end
$var wire 1 * unknown $end
$var tri1 1 + devclrn $end
$var tri1 1 , devpor $end
$var tri1 1 - devoe $end
$var wire 1 . ~QUARTUS_CREATED_GND~I_combout $end
$var wire 1 / ~QUARTUS_CREATED_UNVM~~busy $end
$var wire 1 0 ~QUARTUS_CREATED_ADC1~~eoc $end
$var wire 1 1 Y~output_o $end
$var wire 1 2 D~input_o $end
$var wire 1 3 S1~input_o $end
$var wire 1 4 S0~input_o $end
$var wire 1 5 B~input_o $end
$var wire 1 6 A~input_o $end
$var wire 1 7 Y~0_combout $end
$var wire 1 8 C~input_o $end
$var wire 1 9 Y~1_combout $end
$upscope $end
$upscope $end
$enddefinitions $end
#0
$dumpvars
0!
0"
0#
0$
0%
0&
0'
0(
1)
x*
1+
1,
1-
0.
z/
z0
01
02
03
04
05
06
07
08
09
$end
#50000
1!
16
17
19
11
1'
#100000
1"
1%
0!
06
14
15
#150000
1!
16
#200000
1#
1&
0"
0%
0!
06
04
05
13
18
07
09
01
0'
19
11
1'
#250000
1!
16
#300000
1"
1%
0!
06
14
15
17
09
01
0'
#350000
1!
16
#400000
1$
0#
0&
0"
0%
0!
06
04
05
03
08
12
07
19
11
1'
09
01
0'
#450000
1!
16
17
19
11
1'
#500000
1"
1%
0!
06
14
15
#550000
1!
16
#600000
1#
1&
0"
0%
0!
06
04
05
13
18
07
#650000
1!
16
#700000
1"
1%
0!
06
14
15
17
#750000
1!
16
#800000
0$
0#
0&
0"
0%
0!
06
04
05
03
08
02
07
09
01
0'
#850000
1!
16
17
19
11
1'
#900000
1"
1%
0!
06
14
15
#950000
1!
16
