Documents/FPGA_Programming/HDL/VHDLW3-TRI/simulation/qsim/TristateEight.msim.vcd
$comment
	File created using the following command:
		vcd file TristateEight.msim.vcd -direction
$end
$date
	Sun Mar 24 04:51:47 2024
$end
$version
	ModelSim Version 2020.1
$end
$timescale
	1ps
$end

$scope module TristateEight_vlg_vec_tst $end
$var reg 8 ! A [7:0] $end
$var reg 1 " Control $end
$var reg 8 # treg_Tri_out [7:0] $end
$var wire 1 $ Tri_out [7] $end
$var wire 1 % Tri_out [6] $end
$var wire 1 & Tri_out [5] $end
$var wire 1 ' Tri_out [4] $end
$var wire 1 ( Tri_out [3] $end
$var wire 1 ) Tri_out [2] $end
$var wire 1 * Tri_out [1] $end
$var wire 1 + Tri_out [0] $end

$scope module i1 $end
$var wire 1 , gnd $end
$var wire 1 - vcc $end
$var wire 1 . unknown $end
$var tri1 1 / devclrn $end
$var tri1 1 0 devpor $end
$var tri1 1 1 devoe $end
$var wire 1 2 Tri_out[0]~input_o $end
$var wire 1 3 Tri_out[1]~input_o $end
$var wire 1 4 Tri_out[2]~input_o $end
$var wire 1 5 Tri_out[3]~input_o $end
$var wire 1 6 Tri_out[4]~input_o $end
$var wire 1 7 Tri_out[5]~input_o $end
$var wire 1 8 Tri_out[6]~input_o $end
$var wire 1 9 Tri_out[7]~input_o $end
$var wire 1 : ~QUARTUS_CREATED_GND~I_combout $end
$var wire 1 ; ~QUARTUS_CREATED_UNVM~~busy $end
$var wire 1 < ~QUARTUS_CREATED_ADC1~~eoc $end
$var wire 1 = Tri_out[0]~output_o $end
$var wire 1 > Tri_out[1]~output_o $end
$var wire 1 ? Tri_out[2]~output_o $end
$var wire 1 @ Tri_out[3]~output_o $end
$var wire 1 A Tri_out[4]~output_o $end
$var wire 1 B Tri_out[5]~output_o $end
$var wire 1 C Tri_out[6]~output_o $end
$var wire 1 D Tri_out[7]~output_o $end
$var wire 1 E A[0]~input_o $end
$var wire 1 F Control~input_o $end
$var wire 1 G A[1]~input_o $end
$var wire 1 H A[2]~input_o $end
$var wire 1 I A[3]~input_o $end
$var wire 1 J A[4]~input_o $end
$var wire 1 K A[5]~input_o $end
$var wire 1 L A[6]~input_o $end
$var wire 1 M A[7]~input_o $end
$upscope $end
$upscope $end
$enddefinitions $end
#0
$dumpvars
b0 !
0"
bz #
0+
0*
0)
0(
0'
0&
0%
0$
0,
1-
x.
1/
10
11
02
03
04
05
06
07
08
09
0:
z;
z<
0=
0>
0?
0@
0A
0B
0C
0D
0E
0F
0G
0H
0I
0J
0K
0L
0M
$end
#50000
b1 !
1E
1=
1+
12
#100000
b11 !
1"
b10 !
1F
1G
0E
zD
zC
zB
zA
z@
z?
z>
z=
z$
z%
z&
z'
z(
z)
z*
z+
z2
z3
z4
z5
z6
z7
z8
z9
#150000
b11 !
1E
#200000
b111 !
b101 !
0"
b100 !
0F
1H
0G
0E
0D
0C
0B
0A
0@
1?
0>
0=
0$
0%
0&
0'
0(
1)
0*
0+
02
03
14
05
06
07
08
09
#250000
b101 !
1E
1=
1+
12
#300000
b111 !
1"
b110 !
1F
1G
0E
zD
zC
zB
zA
z@
z?
z>
z=
z$
z%
z&
z'
z(
z)
z*
z+
z2
z3
z4
z5
z6
z7
z8
z9
#350000
b111 !
1E
#400000
b1111 !
b1011 !
b1001 !
0"
b1000 !
0F
1I
0H
0G
0E
0D
0C
0B
0A
1@
0?
0>
0=
0$
0%
0&
0'
1(
0)
0*
0+
02
03
04
15
06
07
08
09
#450000
b1001 !
1E
1=
1+
12
#500000
b1011 !
1"
b1010 !
1F
1G
0E
zD
zC
zB
zA
z@
z?
z>
z=
z$
z%
z&
z'
z(
z)
z*
z+
z2
z3
z4
z5
z6
z7
z8
z9
#550000
b1011 !
1E
#600000
b1111 !
b1101 !
0"
b1100 !
0F
1H
0G
0E
0D
0C
0B
0A
1@
1?
0>
0=
0$
0%
0&
0'
1(
1)
0*
0+
02
03
14
15
06
07
08
09
#650000
b1101 !
1E
1=
1+
12
#700000
b1111 !
1"
b1110 !
1F
1G
0E
zD
zC
zB
zA
z@
z?
z>
z=
z$
z%
z&
z'
z(
z)
z*
z+
z2
z3
z4
z5
z6
z7
z8
z9
#750000
b1111 !
1E
#800000
b11111 !
b10111 !
b10011 !
b10001 !
0"
b10000 !
0F
1J
0I
0H
0G
0E
0D
0C
0B
1A
0@
0?
0>
0=
0$
0%
0&
1'
0(
0)
0*
0+
02
03
04
05
16
07
08
09
#850000
b10001 !
1E
1=
1+
12
#900000
b10011 !
1"
b10010 !
1F
1G
0E
zD
zC
zB
zA
z@
z?
z>
z=
z$
z%
z&
z'
z(
z)
z*
z+
z2
z3
z4
z5
z6
z7
z8
z9
#950000
b10011 !
1E
