Documents/FPGA_Programming/HDL/VHDL/simulation/qsim/adder.msim.vcd
$comment
	File created using the following command:
		vcd file adder.msim.vcd -direction
$end
$date
	Thu Feb 29 09:58:18 2024
$end
$version
	ModelSim Version 2020.1
$end
$timescale
	1ps
$end

$scope module adder_vlg_vec_tst $end
$var reg 1 ! a0 $end
$var reg 1 " a1 $end
$var reg 1 # b0 $end
$var reg 1 $ b1 $end
$var wire 1 % carry $end
$var wire 1 & sum0 $end
$var wire 1 ' sum1 $end

$scope module i1 $end
$var wire 1 ( gnd $end
$var wire 1 ) vcc $end
$var wire 1 * unknown $end
$var tri1 1 + devclrn $end
$var tri1 1 , devpor $end
$var tri1 1 - devoe $end
$var wire 1 . b0~combout $end
$var wire 1 / a0~combout $end
$var wire 1 0 sum0~0_combout $end
$var wire 1 1 a1~combout $end
$var wire 1 2 b1~combout $end
$var wire 1 3 sum1~0_combout $end
$var wire 1 4 carry~0_combout $end
$upscope $end
$upscope $end
$enddefinitions $end
#0
$dumpvars
0!
0"
0#
0$
0%
0&
0'
0(
1)
x*
1+
1,
1-
0.
0/
00
01
02
03
04
$end
#10000
1!
1/
10
1&
#20000
1"
0!
11
0/
13
00
1'
0&
#30000
1!
1/
10
1&
#40000
1#
0"
0!
1.
01
0/
03
0'
#50000
1!
1/
13
00
1'
0&
#60000
1"
0!
11
0/
10
1&
#70000
1!
1/
14
03
00
1%
0'
0&
#80000
1$
0#
0"
0!
12
0.
01
0/
04
13
0%
1'
#90000
1!
1/
10
1&
#100000
1"
0!
11
0/
14
03
00
1%
0'
0&
#110000
1!
1/
10
1&
#120000
1#
0"
0!
1.
01
0/
04
13
0%
1'
#130000
1!
1/
14
03
00
1%
0'
0&
#140000
1"
0!
11
0/
10
1&
#150000
1!
1/
13
00
1'
0&
#160000
0$
0#
0"
0!
02
0.
01
0/
04
03
0%
0'
#170000
1!
1/
10
1&
#180000
1"
0!
11
0/
13
00
1'
0&
#190000
1!
1/
10
1&
#200000
1#
0"
0!
1.
01
0/
03
0'
#210000
1!
1/
13
00
1'
0&
#220000
1"
0!
11
0/
10
1&
#230000
1!
1/
14
03
00
1%
0'
0&
#240000
1$
0#
0"
0!
12
0.
01
0/
04
13
0%
1'
#250000
1!
1/
10
1&
#260000
1"
0!
11
0/
14
03
00
1%
0'
0&
#270000
1!
1/
10
1&
#280000
1#
0"
0!
1.
01
0/
04
13
0%
1'
#290000
1!
1/
14
03
00
1%
0'
0&
#300000
1"
0!
11
0/
10
1&
#310000
1!
1/
13
00
1'
0&
#320000
0$
0#
0"
0!
02
0.
01
0/
04
03
0%
0'
#330000
1!
1/
10
1&
#340000
1"
0!
11
0/
13
00
1'
0&
#350000
1!
1/
10
1&
#360000
1#
0"
0!
1.
01
0/
03
0'
#370000
1!
1/
13
00
1'
0&
#380000
1"
0!
11
0/
10
1&
#390000
1!
1/
14
03
00
1%
0'
0&
#400000
1$
0#
0"
0!
12
0.
01
0/
04
13
0%
1'
#410000
1!
1/
10
1&
#420000
1"
0!
11
0/
14
03
00
1%
0'
0&
#430000
1!
1/
10
1&
#440000
1#
0"
0!
1.
01
0/
04
13
0%
1'
#450000
1!
1/
14
03
00
1%
0'
0&
#460000
1"
0!
11
0/
10
1&
#470000
1!
1/
13
00
1'
0&
#480000
0$
0#
0"
0!
02
0.
01
0/
04
03
0%
0'
#490000
1!
1/
10
1&
#500000
1"
0!
11
0/
13
00
1'
0&
#510000
1!
1/
10
1&
#520000
1#
0"
0!
1.
01
0/
03
0'
#530000
1!
1/
13
00
1'
0&
#540000
1"
0!
11
0/
10
1&
#550000
1!
1/
14
03
00
1%
0'
0&
#560000
1$
0#
0"
12
0.
01
04
13
10
0%
1'
1&
#580000
1"
11
14
03
1%
0'
#600000
1#
0"
1.
01
00
0&
#620000
1"
11
13
1'
#640000
0!
0$
0#
0"
0/
02
0.
01
04
03
0%
0'
#650000
1!
1/
10
1&
#660000
1"
0!
11
0/
13
00
1'
0&
#670000
1!
1/
10
1&
#680000
1#
0"
0!
1.
01
0/
03
0'
#690000
1!
1/
13
00
1'
0&
#700000
1"
0!
11
0/
10
1&
#710000
1!
1/
14
03
00
1%
0'
0&
#720000
1$
0#
0"
0!
12
0.
01
0/
04
13
0%
1'
#730000
1!
1/
10
1&
#740000
1"
0!
11
0/
14
03
00
1%
0'
0&
#750000
1!
1/
10
1&
#760000
1#
0"
0!
1.
01
0/
04
13
0%
1'
#770000
1!
1/
14
03
00
1%
0'
0&
#780000
1"
0!
11
0/
10
1&
#790000
1!
1/
13
00
1'
0&
#800000
0$
0#
0"
0!
02
0.
01
0/
04
03
0%
0'
#810000
1!
1/
10
1&
#820000
1"
0!
11
0/
13
00
1'
0&
#830000
1!
1/
10
1&
#840000
1#
0"
0!
1.
01
0/
03
0'
#850000
1!
1/
13
00
1'
0&
#860000
1"
0!
11
0/
10
1&
#870000
1!
1/
14
03
00
1%
0'
0&
#880000
1$
0#
0"
0!
12
0.
01
0/
04
13
0%
1'
#890000
1!
1/
10
1&
#900000
1"
0!
11
0/
14
03
00
1%
0'
0&
#910000
1!
1/
10
1&
#920000
1#
0"
0!
1.
01
0/
04
13
0%
1'
#930000
1!
1/
14
03
00
1%
0'
0&
#940000
1"
0!
11
0/
10
1&
#950000
1!
1/
13
00
1'
0&
#960000
0$
0#
0"
0!
02
0.
01
0/
04
03
0%
0'
#970000
1!
1/
10
1&
#980000
1"
0!
11
0/
13
00
1'
0&
#990000
1!
1/
10
1&
