Documents/FPGA_Programming/HDL/VHDLW2/simulation/qsim/ThreeBitAdder.msim.vcd
$comment
	File created using the following command:
		vcd file ThreeBitAdder.msim.vcd -direction
$end
$date
	Thu Mar 14 12:10:45 2024
$end
$version
	ModelSim Version 2020.1
$end
$timescale
	1ps
$end

$scope module ThreeBitAdder_vlg_vec_tst $end
$var reg 1 ! a0 $end
$var reg 1 " a1 $end
$var reg 1 # a2 $end
$var reg 1 $ b0 $end
$var reg 1 % b1 $end
$var reg 1 & b2 $end
$var reg 1 ' cin $end
$var wire 1 ( cout $end
$var wire 1 ) sum0 $end
$var wire 1 * sum1 $end
$var wire 1 + sum2 $end

$scope module i1 $end
$var wire 1 , gnd $end
$var wire 1 - vcc $end
$var wire 1 . unknown $end
$var tri1 1 / devclrn $end
$var tri1 1 0 devpor $end
$var tri1 1 1 devoe $end
$var wire 1 2 ~QUARTUS_CREATED_GND~I_combout $end
$var wire 1 3 ~QUARTUS_CREATED_UNVM~~busy $end
$var wire 1 4 ~QUARTUS_CREATED_ADC1~~eoc $end
$var wire 1 5 sum0~output_o $end
$var wire 1 6 sum1~output_o $end
$var wire 1 7 sum2~output_o $end
$var wire 1 8 cout~output_o $end
$var wire 1 9 b0~input_o $end
$var wire 1 : cin~input_o $end
$var wire 1 ; a0~input_o $end
$var wire 1 < sum0~0_combout $end
$var wire 1 = cout0~1_combout $end
$var wire 1 > a1~input_o $end
$var wire 1 ? b1~input_o $end
$var wire 1 @ cout0~0_combout $end
$var wire 1 A sum1~0_combout $end
$var wire 1 B b2~input_o $end
$var wire 1 C a2~input_o $end
$var wire 1 D cout1~0_combout $end
$var wire 1 E sum2~0_combout $end
$var wire 1 F cout~0_combout $end
$upscope $end
$upscope $end
$enddefinitions $end
#0
$dumpvars
0!
0"
0#
0$
0%
0&
0'
0(
0)
0*
0+
0,
1-
x.
1/
10
11
02
z3
z4
05
06
07
08
09
0:
0;
0<
0=
0>
0?
0@
0A
0B
0C
0D
0E
0F
$end
#20000
1!
1;
1<
15
1)
#40000
1"
0!
0;
1>
0<
1A
16
05
0)
1*
#60000
1!
1;
1<
15
1)
#80000
1#
0"
0!
0;
0>
1C
0<
0A
1E
17
06
05
0)
0*
1+
#100000
1!
1;
1<
15
1)
#120000
1"
0!
0;
1>
0<
1A
16
05
0)
1*
#140000
1!
1;
1<
15
1)
#160000
1$
0#
0"
0!
0;
0>
0C
19
0A
0E
07
06
0*
0+
#180000
1!
1;
1=
0<
05
0)
1A
16
1*
#200000
1"
0!
0;
1>
0=
1D
1<
0A
06
15
0D
1)
0*
1A
1E
17
16
1*
1+
0E
07
0+
#220000
1!
1;
1=
0<
05
1D
0)
0A
06
0*
1E
17
1+
#240000
1%
1#
0"
0!
0;
0>
1C
1?
0=
1<
1F
0E
07
18
15
0D
1)
1(
0+
1A
16
1*
0F
1E
17
08
0(
1+
#260000
1!
1;
1=
0<
05
1D
0)
0A
06
0*
1F
0E
07
18
1(
0+
#280000
1"
0!
0;
1>
0=
1<
1A
16
15
1)
1*
0A
06
0*
#300000
1!
1;
1=
0<
05
0)
1A
16
1*
#320000
0$
0#
0"
0!
0;
0>
0C
09
0=
0A
0F
1E
17
08
06
0D
0*
0(
1+
1A
16
1*
0E
07
0+
#340000
1!
1;
1<
15
1)
#360000
1"
0!
0;
1>
1D
0<
0A
06
05
0)
0*
1E
17
1+
#380000
1!
1;
1<
15
1)
#400000
1#
0"
0!
0;
0>
1C
0D
0<
1A
1F
0E
07
18
16
05
0)
1*
1(
0+
0F
1E
17
08
0(
1+
#420000
1!
1;
1<
15
1)
#440000
1"
0!
0;
1>
1D
0<
0A
06
05
0)
0*
1F
0E
07
18
1(
0+
#460000
1!
1;
1<
15
1)
#480000
1&
0%
1$
0#
0"
0!
0;
0>
0C
19
0?
1B
0D
0F
1E
17
08
0(
1+
#500000
1!
1;
1=
0<
05
0)
1A
16
1*
#520000
1"
0!
0;
1>
0=
1D
1<
0A
06
15
0D
1)
0*
1A
1F
0E
07
18
16
1*
1(
0+
0F
1E
17
08
0(
1+
#540000
1!
1;
1=
0<
05
1D
0)
0A
06
0*
1F
0E
07
18
1(
0+
#560000
1#
0"
0!
0;
0>
1C
0=
0D
1<
1A
1E
17
16
15
1)
1*
1+
0A
0E
07
06
0*
0+
#580000
1!
1;
1=
0<
05
0)
1A
16
1*
#600000
1"
0!
0;
1>
0=
1D
1<
0A
06
15
0D
1)
0*
1A
1E
17
16
1*
1+
0E
07
0+
#620000
1!
1;
1=
0<
05
1D
0)
0A
06
0*
1E
17
1+
#640000
0$
0#
0"
0!
0;
0>
0C
09
0=
0D
1A
0E
07
16
1*
0+
0A
0F
1E
17
08
06
0*
0(
1+
#660000
1!
1;
1<
15
1)
#680000
1"
0!
0;
1>
0<
1A
16
05
0)
1*
#700000
1!
1;
1<
15
1)
#720000
1%
1#
0"
0!
0;
0>
1C
1?
0<
1F
0E
07
18
05
0)
1(
0+
#740000
1!
1;
1<
15
1)
#760000
1"
0!
0;
1>
1D
0<
0A
06
05
0)
0*
1E
17
1+
#780000
1!
1;
1<
15
1)
#800000
1$
0#
0"
0!
0;
0>
0C
19
0D
1A
0E
07
16
1*
0+
0F
1E
17
08
0(
1+
#820000
1!
1;
1=
0<
05
1D
0)
0A
06
0*
1F
0E
07
18
1(
0+
#840000
1"
0!
0;
1>
0=
1<
1A
16
15
1)
1*
0A
06
0*
#860000
1!
1;
1=
0<
05
0)
1A
16
1*
#880000
1#
0"
0!
0;
0>
1C
0=
1<
0A
1E
17
06
15
0D
1)
0*
1+
1A
16
1*
0E
07
0+
#900000
1!
1;
1=
0<
05
1D
0)
0A
06
0*
1E
17
1+
#920000
1"
0!
0;
1>
0=
1<
1A
16
15
1)
1*
0A
06
0*
#940000
1!
1;
1=
0<
05
0)
1A
16
1*
#960000
0&
0%
0$
0#
0"
0!
0;
0>
0C
09
0?
0B
0=
0D
0F
08
0(
0A
0E
07
06
0*
0+
#980000
1!
1;
1<
15
1)
