Documents/FPGA_Programming/HDL/VHDLW3-2/simulation/qsim/One2FourDem.msim.vcd
$comment
	File created using the following command:
		vcd file One2FourDem.msim.vcd -direction
$end
$date
	Sun Mar 24 03:58:43 2024
$end
$version
	ModelSim Version 2020.1
$end
$timescale
	1ps
$end

$scope module one2fourdem_vhd_vec_tst $end
$var wire 1 ! A $end
$var wire 1 " B $end
$var wire 1 # C $end
$var wire 1 $ D $end
$var wire 1 % input $end
$var wire 1 & S0 $end
$var wire 1 ' S1 $end

$scope module i1 $end
$var wire 1 ( gnd $end
$var wire 1 ) vcc $end
$var wire 1 * unknown $end
$var wire 1 + devoe $end
$var wire 1 , devclrn $end
$var wire 1 - devpor $end
$var wire 1 . ww_devoe $end
$var wire 1 / ww_devclrn $end
$var wire 1 0 ww_devpor $end
$var wire 1 1 ww_input $end
$var wire 1 2 ww_S0 $end
$var wire 1 3 ww_S1 $end
$var wire 1 4 ww_A $end
$var wire 1 5 ww_B $end
$var wire 1 6 ww_C $end
$var wire 1 7 ww_D $end
$var wire 1 8 \~QUARTUS_CREATED_ADC1~_CHSEL_bus\ [4] $end
$var wire 1 9 \~QUARTUS_CREATED_ADC1~_CHSEL_bus\ [3] $end
$var wire 1 : \~QUARTUS_CREATED_ADC1~_CHSEL_bus\ [2] $end
$var wire 1 ; \~QUARTUS_CREATED_ADC1~_CHSEL_bus\ [1] $end
$var wire 1 < \~QUARTUS_CREATED_ADC1~_CHSEL_bus\ [0] $end
$var wire 1 = \~QUARTUS_CREATED_GND~I_combout\ $end
$var wire 1 > \~QUARTUS_CREATED_UNVM~~busy\ $end
$var wire 1 ? \~QUARTUS_CREATED_ADC1~~eoc\ $end
$var wire 1 @ \A~output_o\ $end
$var wire 1 A \B~output_o\ $end
$var wire 1 B \C~output_o\ $end
$var wire 1 C \D~output_o\ $end
$var wire 1 D \S1~input_o\ $end
$var wire 1 E \input~input_o\ $end
$var wire 1 F \S0~input_o\ $end
$var wire 1 G \AND_A|Z~combout\ $end
$var wire 1 H \AND_B|Z~combout\ $end
$var wire 1 I \AND_C|Z~combout\ $end
$var wire 1 J \AND_D|Z~combout\ $end
$upscope $end
$upscope $end
$enddefinitions $end
#0
$dumpvars
0!
0"
0#
0$
0%
0&
0'
0(
1)
x*
1+
1,
1-
1.
1/
10
01
02
03
04
05
06
07
0=
z>
z?
0@
0A
0B
0C
0D
0E
0F
0G
0H
0I
0J
08
09
0:
0;
0<
$end
#100000
1&
12
1F
#120000
1%
11
1E
1H
1A
15
1"
#200000
0&
1'
02
13
1D
0F
0H
1I
1B
0A
16
05
1#
0"
#300000
1&
12
1F
0I
1J
1C
0B
17
06
1$
0#
#400000
0&
0'
02
03
0D
0F
1G
0J
0C
1@
07
14
0$
1!
#500000
1&
12
1F
0G
1H
1A
0@
15
04
1"
0!
#600000
0&
1'
02
13
1D
0F
0H
1I
1B
0A
16
05
1#
0"
#700000
1&
12
1F
0I
1J
1C
0B
17
06
1$
0#
#800000
0&
0'
02
03
0D
0F
1G
0J
0C
1@
07
14
0$
1!
#900000
1&
12
1F
0G
1H
1A
0@
15
04
1"
0!
