Documents/FPGA_Programming/HDL/VHDLW2-halfadder/simulation/qsim/HalfAdder.msim.vcd
$comment
	File created using the following command:
		vcd file HalfAdder.msim.vcd -direction
$end
$date
	Thu Mar 14 16:11:23 2024
$end
$version
	ModelSim Version 2020.1
$end
$timescale
	1ps
$end

$scope module HalfAdder_vlg_vec_tst $end
$var reg 1 ! A $end
$var reg 1 " B $end
$var wire 1 # Carry $end
$var wire 1 $ Sum $end

$scope module i1 $end
$var wire 1 % gnd $end
$var wire 1 & vcc $end
$var wire 1 ' unknown $end
$var tri1 1 ( devclrn $end
$var tri1 1 ) devpor $end
$var tri1 1 * devoe $end
$var wire 1 + ~QUARTUS_CREATED_GND~I_combout $end
$var wire 1 , ~QUARTUS_CREATED_UNVM~~busy $end
$var wire 1 - ~QUARTUS_CREATED_ADC1~~eoc $end
$var wire 1 . Sum~output_o $end
$var wire 1 / Carry~output_o $end
$var wire 1 0 B~input_o $end
$var wire 1 1 A~input_o $end
$var wire 1 2 gate1|Z~combout $end
$var wire 1 3 gate2|Z~combout $end
$upscope $end
$upscope $end
$enddefinitions $end
#0
$dumpvars
0!
0"
0#
0$
0%
1&
x'
1(
1)
1*
0+
z,
z-
0.
0/
00
01
02
03
$end
#100000
1!
11
12
1.
1$
#200000
1"
0!
01
10
#300000
1!
11
13
02
0.
1/
1#
0$
#400000
0"
0!
01
00
03
0/
0#
#500000
1!
11
12
1.
1$
#600000
1"
0!
01
10
#700000
1!
11
13
02
0.
1/
1#
0$
#800000
0"
0!
01
00
03
0/
0#
#900000
1!
11
12
1.
1$
