Documents/FPGA_Programming/HDL/VHDLW3-4/simulation/qsim/FourBitParityCheckerEven.msim.vcd
$comment
	File created using the following command:
		vcd file FourBitParityCheckerEven.msim.vcd -direction
$end
$date
	Thu Mar 14 03:00:58 2024
$end
$version
	ModelSim Version 2020.1
$end
$timescale
	1ps
$end

$scope module FourBitParityCheckerEven_vlg_vec_tst $end
$var reg 4 ! hex_digit [3:0] $end
$var wire 1 " segment_a $end
$var wire 1 # segment_b $end
$var wire 1 $ segment_c $end
$var wire 1 % segment_d $end
$var wire 1 & segment_e $end
$var wire 1 ' segment_f $end
$var wire 1 ( segment_g $end

$scope module i1 $end
$var wire 1 ) gnd $end
$var wire 1 * vcc $end
$var wire 1 + unknown $end
$var tri1 1 , devclrn $end
$var tri1 1 - devpor $end
$var tri1 1 . devoe $end
$var wire 1 / ~QUARTUS_CREATED_GND~I_combout $end
$var wire 1 0 ~QUARTUS_CREATED_UNVM~~busy $end
$var wire 1 1 ~QUARTUS_CREATED_ADC1~~eoc $end
$var wire 1 2 segment_a~output_o $end
$var wire 1 3 segment_b~output_o $end
$var wire 1 4 segment_c~output_o $end
$var wire 1 5 segment_d~output_o $end
$var wire 1 6 segment_e~output_o $end
$var wire 1 7 segment_f~output_o $end
$var wire 1 8 segment_g~output_o $end
$var wire 1 9 hex_digit[2]~input_o $end
$var wire 1 : hex_digit[0]~input_o $end
$var wire 1 ; hex_digit[1]~input_o $end
$var wire 1 < hex_digit[3]~input_o $end
$var wire 1 = Mux0~0_combout $end
$var wire 1 > Mux1~0_combout $end
$var wire 1 ? Mux2~0_combout $end
$var wire 1 @ Mux3~0_combout $end
$var wire 1 A Mux4~0_combout $end
$var wire 1 B Mux5~0_combout $end
$var wire 1 C Mux6~0_combout $end
$upscope $end
$upscope $end
$enddefinitions $end
#0
$dumpvars
b1000 !
0"
0#
0$
0%
0&
0'
0(
0)
1*
x+
1,
1-
1.
0/
z0
z1
02
03
04
05
06
07
08
09
0:
0;
1<
0=
0>
0?
0@
0A
0B
1C
$end
#50000
b0 !
0<
0C
18
1(
#100000
b100 !
b1100 !
1<
19
1?
1>
13
14
1$
1#
#150000
b100 !
0<
1C
1A
1@
0?
0>
1=
12
03
04
15
16
08
0(
1&
1%
0$
0#
1"
#200000
b110 !
b10 !
b1010 !
1<
09
1;
0A
0=
02
06
0&
0"
#250000
b10 !
0<
1B
0@
1?
14
05
17
1'
0%
1$
#300000
b110 !
b1110 !
1<
19
0B
1>
13
07
0'
1#
#350000
b110 !
0<
0?
04
0$
#400000
b111 !
b101 !
b1 !
b1001 !
1<
09
0;
1:
1A
0>
03
16
1&
0#
#450000
b1 !
0<
0C
1B
1@
1=
12
15
17
18
1(
1'
1%
1"
#500000
b101 !
b1101 !
1<
19
1C
0A
0@
05
06
08
0(
0&
0%
#550000
b101 !
0<
0B
1A
1>
0=
02
13
16
07
0'
1&
1#
0"
#600000
b111 !
b11 !
b1011 !
1<
09
1;
0A
1=
12
06
0&
1"
#650000
b11 !
0<
1B
1A
0>
0=
02
03
16
17
1'
1&
0#
0"
#700000
b111 !
b1111 !
1<
19
0B
0A
1@
1?
1>
13
14
15
06
07
0'
0&
1%
1$
1#
#750000
b111 !
0<
0C
1B
1A
0?
0>
03
04
16
17
18
1(
1'
1&
0$
0#
#800000
b110 !
b100 !
b0 !
b1000 !
1<
09
0;
0:
1C
0B
0A
0@
05
06
07
08
0(
0'
0&
0%
#850000
b0 !
0<
0C
18
1(
#900000
b100 !
b1100 !
1<
19
1?
1>
13
14
1$
1#
#950000
b100 !
0<
1C
1A
1@
0?
0>
1=
12
03
04
15
16
08
0(
1&
1%
0$
0#
1"
