Documents/FPGA_Programming/HDL/VHDLw1/simulation/qsim/FullAdder.msim.vcd
$comment
	File created using the following command:
		vcd file FullAdder.msim.vcd -direction
$end
$date
	Thu Mar 14 11:39:46 2024
$end
$version
	ModelSim Version 2020.1
$end
$timescale
	1ps
$end

$scope module FullAdder_vlg_vec_tst $end
$var reg 1 ! a $end
$var reg 1 " b $end
$var reg 1 # cin $end
$var wire 1 $ cout $end
$var wire 1 % sum $end

$scope module i1 $end
$var wire 1 & gnd $end
$var wire 1 ' vcc $end
$var wire 1 ( unknown $end
$var tri1 1 ) devclrn $end
$var tri1 1 * devpor $end
$var tri1 1 + devoe $end
$var wire 1 , ~QUARTUS_CREATED_GND~I_combout $end
$var wire 1 - ~QUARTUS_CREATED_UNVM~~busy $end
$var wire 1 . ~QUARTUS_CREATED_ADC1~~eoc $end
$var wire 1 / sum~output_o $end
$var wire 1 0 cout~output_o $end
$var wire 1 1 b~input_o $end
$var wire 1 2 cin~input_o $end
$var wire 1 3 a~input_o $end
$var wire 1 4 sum~0_combout $end
$var wire 1 5 cout~0_combout $end
$upscope $end
$upscope $end
$enddefinitions $end
#0
$dumpvars
0!
0"
0#
0$
0%
0&
1'
x(
1)
1*
1+
0,
z-
z.
0/
00
01
02
03
04
05
$end
#100000
1!
13
14
1/
1%
#200000
1"
0!
03
11
#300000
1!
13
15
04
0/
10
1$
0%
#400000
1#
0"
0!
03
01
12
05
14
1/
00
0$
1%
#500000
1!
13
15
04
0/
10
1$
0%
#600000
1"
0!
03
11
#700000
1!
13
14
1/
1%
#800000
0#
0"
0!
03
01
02
05
04
0/
00
0$
0%
#900000
1!
13
14
1/
1%
